[gd_scene load_steps=3 format=2]

[ext_resource path="res://icon.png" type="Texture" id=1]

[sub_resource type="RectangleShape2D" id=1]
extents = Vector2( 32, 32 )

[node name="Main Paredes Fixas" type="Node2D"]

[node name="AreaParedeFixa" type="Area2D" parent="." groups=[
"Fixa",
"ParaExplosao",
"SouEu",
]]
collision_layer = 15
collision_mask = 15
__meta__ = {
"_edit_group_": true
}

[node name="CollisionShape2D" type="CollisionShape2D" parent="AreaParedeFixa"]
scale = Vector2( 0.5, 0.5 )
shape = SubResource( 1 )

[node name="Sprite" type="Sprite" parent="AreaParedeFixa/CollisionShape2D"]
modulate = Color( 0, 0, 0, 1 )
texture = ExtResource( 1 )
